
//The format should be  swp,o1p,f1p,f2p,rg,d1, lower bound percent (int), higher bound percent (int), tolerance , cost function, poise au to run and process
10.0,5.0,8.1,1.1,1.0,2.0,20,20,0.2,minabsint,default





